{
    "Version": "2012-10-17",
    "Statement": [
        {
            "Action": [
                "s3:ListBucket",
                "s3:GetReplicationConfiguration",
                "s3:GetObjectVersionForReplication",
                "s3:GetObjectVersionAcl"
            ],
            "Effect": "Allow",
            "Resource": [
                "${s3_bucket_arn}",
                "${s3_bucket_arn}/*"
            ]
        },
        {
            "Action": [
                "s3:ReplicateObject",
                "s3:ReplicateDelete",
                "s3:ReplicateTags",
                "s3:GetObjectVersionTagging"
            ],
            "Effect": "Allow",
            "Condition": {
                "StringLikeIfExists": {
                    "s3:x-amz-server-side-encryption": [
                        "aws:kms",
                        "AES256"
                    ],
                    "s3:x-amz-server-side-encryption-aws-kms-key-id": [
                        "${kms_replication_arn}"
                    ]
                }
            },
            "Resource": "${s3_bucket_replication_arn}/*"
        },
        {
            "Action": [
                "kms:Decrypt"
            ],
            "Effect": "Allow",
            "Condition": {
                "StringLike": {
                    "kms:ViaService": "s3.${region}.amazonaws.com",
                    "kms:EncryptionContext:aws:s3:arn": [
                        "${s3_bucket_arn}/*"
                    ]
                }
            },
            "Resource": [
                "${kms_arn}"
            ]
        },
        {
            "Action": [
                "kms:Encrypt"
            ],
            "Effect": "Allow",
            "Condition": {
                "StringLike": {
                    "kms:ViaService": "s3.${region_replication}.amazonaws.com",
                    "kms:EncryptionContext:aws:s3:arn": [
                        "${s3_bucket_replication_arn}/*"
                    ]
                }
            },
            "Resource": [
                "${kms_replication_arn}"
            ]
        }
    ]
}